MMMMMMMMMMMMMMMMMMMM
M      S      S    M
MMMMMMMMMMMMMMMMMMMM
M                  M
M          E       M
M S        E       M
MMMMMMMMMMMMMMMMMMMM
M                  M
M H              D M
MMMMMMMMMMMMMMMMMMMM