MMMMMMMMMMMMMMMMMMMM
M   B         R    M
M   B         R    M
M  MBM       MRM   M
M  M M       M M   M
M  MSM       MSM   M
MMMMMMMMMMMMMMMMMMMM
M                  M
M H             D  M
MMMMMMMMMMMMMMMMMMMM